a3_task3_alison_sells
…
Summary table

Summary table of the purple urchins by the amount collected, where they were collected, and in what year

purchin_table <- purple_urchins %>% 
  group_by(site_full, year) %>% 
  count(site_full, year) 
purchin_table

## # A tibble: 61 x 3
## # Groups:   site_full, year [61]
##    site_full       year     n
##    <chr>          <dbl> <int>
##  1 Arroyo Quemado  2008    67
##  2 Arroyo Quemado  2009   926
##  3 Arroyo Quemado  2010   921
##  4 Arroyo Quemado  2011   887
##  5 Arroyo Quemado  2012   764
##  6 Arroyo Quemado  2013   434
##  7 Arroyo Quemado  2014   410
##  8 Arroyo Quemado  2015   400
##  9 Arroyo Quemado  2016   342
## 10 Arroyo Quemado  2017   406
## #  with 51 more rows
…
purchin_table

## # A tibble: 61 x 3
## # Groups:   site_full, year [61]
##    site_full       year     n
##    <chr>          <dbl> <int>
##  1 Arroyo Quemado  2008    67
##  2 Arroyo Quemado  2009   926
##  3 Arroyo Quemado  2010   921
##  4 Arroyo Quemado  2011   887
##  5 Arroyo Quemado  2012   764
##  6 Arroyo Quemado  2013   434
##  7 Arroyo Quemado  2014   410
##  8 Arroyo Quemado  2015   400
##  9 Arroyo Quemado  2016   342
## 10 Arroyo Quemado  2017   406
## #  with 51 more rows
